input;result
7;[7]
8;[2,2,2,2]
9;[7,2]
10;[2,2,2,2,2]
11;[7,2,2]
12;[2,2,2,2,2,2]
13;[7,2,2,2]
14;[7,7]
15;[7,2,2,2,2]
16;[7,7,2]
17;[7,2,2,2,2,2]
18;[7,7,2,2]
19;[7,2,2,2,2,2,2]
20;[20]
21;[7,7,7]
22;[20,2]
23;[7,7,7,2]
24;[20,2,2]
25;[7,7,7,2,2]
26;[20,2,2,2]
27;[20,7]
28;[7,7,7,7]
29;[20,7,2]
30;[7,7,7,7,2]
31;[20,7,2,2]
32;[7,7,7,7,2,2]
33;[20,7,2,2,2]
34;[20,7,7]
35;[7,7,7,7,7]
36;[20,7,7,2]
37;[7,7,7,7,7,2]
38;[20,7,7,2,2]
39;[7,7,7,7,7,2,2]
40;[20,20]
41;[20,7,7,7]
42;[20,20,2]
43;[20,7,7,7,2]
44;[20,20,2,2]
45;[20,7,7,7,2,2]
46;[20,20,2,2,2]
47;[20,20,7]
48;[20,7,7,7,7]
49;[20,20,7,2]
50;[20,7,7,7,7,2]
51;[20,20,7,2,2]
52;[20,7,7,7,7,2,2]
53;[20,20,7,2,2,2]
54;[20,20,7,7]
55;[20,7,7,7,7,7]
56;[20,20,7,7,2]
57;[20,7,7,7,7,7,2]
58;[20,20,7,7,2,2]
59;[20,7,7,7,7,7,2,2]
60;[20,20,20]
61;[20,20,7,7,7]
62;[20,20,20,2]
63;[20,20,7,7,7,2]
64;[20,20,20,2,2]
65;[20,20,7,7,7,2,2]
66;[20,20,20,2,2,2]
67;[20,20,20,7]
68;[20,20,7,7,7,7]
69;[20,20,20,7,2]
70;[70]
71;[20,20,20,7,2,2]
72;[70,2]
73;[20,20,20,7,2,2,2]
74;[70,2,2]
75;[20,20,7,7,7,7,7]
76;[70,2,2,2]
77;[70,7]
78;[70,2,2,2,2]
79;[70,7,2]
80;[20,20,20,20]
81;[70,7,2,2]
82;[20,20,20,20,2]
83;[70,7,2,2,2]
84;[70,7,7]
85;[70,7,2,2,2,2]
86;[70,7,7,2]
87;[20,20,20,20,7]
88;[70,7,7,2,2]
89;[20,20,20,20,7,2]
90;[70,20]
91;[70,7,7,7]
92;[70,20,2]
93;[70,7,7,7,2]
94;[70,20,2,2]
95;[70,7,7,7,2,2]
96;[70,20,2,2,2]
97;[70,20,7]
98;[70,7,7,7,7]
99;[70,20,7,2]
100;[20,20,20,20,20]
101;[70,20,7,2,2]
102;[20,20,20,20,20,2]
103;[70,20,7,2,2,2]
104;[70,20,7,7]
105;[70,7,7,7,7,7]
106;[70,20,7,7,2]
107;[20,20,20,20,20,7]
108;[70,20,7,7,2,2]
109;[20,20,20,20,20,7,2]
110;[70,20,20]
111;[70,20,7,7,7]
112;[70,20,20,2]
113;[70,20,7,7,7,2]
114;[70,20,20,2,2]
115;[70,20,7,7,7,2,2]
116;[70,20,20,2,2,2]
117;[70,20,20,7]
118;[70,20,7,7,7,7]
119;[70,20,20,7,2]
120;[20,20,20,20,20,20]
121;[70,20,20,7,2,2]
122;[20,20,20,20,20,20,2]
123;[70,20,20,7,2,2,2]
124;[70,20,20,7,7]
125;[70,20,7,7,7,7,7]
126;[70,20,20,7,7,2]
127;[20,20,20,20,20,20,7]
128;[70,20,20,7,7,2,2]
129;[20,20,20,20,20,20,7,2]
130;[70,20,20,20]
131;[70,20,20,7,7,7]
132;[70,20,20,20,2]
133;[70,20,20,7,7,7,2]
134;[70,20,20,20,2,2]
135;[70,20,20,7,7,7,2,2]
136;[70,20,20,20,2,2,2]
137;[70,20,20,20,7]
138;[70,20,20,7,7,7,7]
139;[70,20,20,20,7,2]
140;[70,70]
141;[70,20,20,20,7,2,2]
142;[70,70,2]
143;[70,20,20,20,7,2,2,2]
144;[70,70,2,2]
145;[70,20,20,7,7,7,7,7]
146;[70,70,2,2,2]
147;[70,70,7]
148;[70,70,2,2,2,2]
149;[70,70,7,2]
150;[70,20,20,20,20]
151;[70,70,7,2,2]
152;[70,20,20,20,20,2]
153;[70,70,7,2,2,2]
154;[70,70,7,7]
155;[70,70,7,2,2,2,2]
156;[70,70,7,7,2]
157;[70,20,20,20,20,7]
158;[70,70,7,7,2,2]
159;[70,20,20,20,20,7,2]
160;[70,70,20]
161;[70,70,7,7,7]
162;[70,70,20,2]
163;[70,70,7,7,7,2]
164;[70,70,20,2,2]
165;[70,70,7,7,7,2,2]
166;[70,70,20,2,2,2]
167;[70,70,20,7]
168;[70,70,7,7,7,7]
169;[70,70,20,7,2]
170;[70,20,20,20,20,20]
171;[70,70,20,7,2,2]
172;[70,20,20,20,20,20,2]
173;[70,70,20,7,2,2,2]
174;[70,70,20,7,7]
175;[70,70,7,7,7,7,7]
176;[70,70,20,7,7,2]
177;[70,20,20,20,20,20,7]
178;[70,70,20,7,7,2,2]
179;[70,20,20,20,20,20,7,2]
180;[70,70,20,20]
181;[70,70,20,7,7,7]
182;[70,70,20,20,2]
183;[70,70,20,7,7,7,2]
184;[70,70,20,20,2,2]
185;[70,70,20,7,7,7,2,2]
186;[70,70,20,20,2,2,2]
187;[70,70,20,20,7]
188;[70,70,20,7,7,7,7]
189;[70,70,20,20,7,2]
190;[70,20,20,20,20,20,20]
191;[70,70,20,20,7,2,2]
192;[70,20,20,20,20,20,20,2]
193;[70,70,20,20,7,2,2,2]
194;[70,70,20,20,7,7]
195;[70,70,20,7,7,7,7,7]
196;[70,70,20,20,7,7,2]
197;[70,20,20,20,20,20,20,7]
198;[70,70,20,20,7,7,2,2]
199;[70,20,20,20,20,20,20,7,2]
200;[200]
201;[70,70,20,20,7,7,7]
202;[200,2]
203;[70,70,20,20,7,7,7,2]
204;[200,2,2]
205;[70,70,20,20,7,7,7,2,2]
206;[200,2,2,2]
207;[200,7]
208;[200,2,2,2,2]
209;[200,7,2]
210;[70,70,70]
211;[200,7,2,2]
212;[70,70,70,2]
213;[200,7,2,2,2]
214;[200,7,7]
215;[200,7,2,2,2,2]
216;[200,7,7,2]
217;[70,70,70,7]
218;[200,7,7,2,2]
219;[70,70,70,7,2]
220;[200,20]
221;[200,7,7,7]
222;[200,20,2]
223;[200,7,7,7,2]
224;[200,20,2,2]
225;[200,7,7,7,2,2]
226;[200,20,2,2,2]
227;[200,20,7]
228;[200,7,7,7,7]
229;[200,20,7,2]
230;[70,70,70,20]
231;[200,20,7,2,2]
232;[70,70,70,20,2]
233;[200,20,7,2,2,2]
234;[200,20,7,7]
235;[200,7,7,7,7,7]
236;[200,20,7,7,2]
237;[70,70,70,20,7]
238;[200,20,7,7,2,2]
239;[70,70,70,20,7,2]
240;[200,20,20]
241;[200,20,7,7,7]
242;[200,20,20,2]
243;[200,20,7,7,7,2]
244;[200,20,20,2,2]
245;[200,20,7,7,7,2,2]
246;[200,20,20,2,2,2]
247;[200,20,20,7]
248;[200,20,7,7,7,7]
249;[200,20,20,7,2]
250;[70,70,70,20,20]
251;[200,20,20,7,2,2]
252;[70,70,70,20,20,2]
253;[200,20,20,7,2,2,2]
254;[200,20,20,7,7]
255;[200,20,7,7,7,7,7]
256;[200,20,20,7,7,2]
257;[70,70,70,20,20,7]
258;[200,20,20,7,7,2,2]
259;[70,70,70,20,20,7,2]
260;[200,20,20,20]
261;[200,20,20,7,7,7]
262;[200,20,20,20,2]
263;[200,20,20,7,7,7,2]
264;[200,20,20,20,2,2]
265;[200,20,20,7,7,7,2,2]
266;[200,20,20,20,2,2,2]
267;[200,20,20,20,7]
268;[200,20,20,7,7,7,7]
269;[200,20,20,20,7,2]
270;[200,70]
271;[200,20,20,20,7,2,2]
272;[200,70,2]
273;[200,20,20,20,7,2,2,2]
274;[200,70,2,2]
275;[200,20,20,7,7,7,7,7]
276;[200,70,2,2,2]
277;[200,70,7]
278;[200,70,2,2,2,2]
279;[200,70,7,2]
280;[70,70,70,70]
281;[200,70,7,2,2]
282;[70,70,70,70,2]
283;[200,70,7,2,2,2]
284;[200,70,7,7]
285;[200,70,7,2,2,2,2]
286;[200,70,7,7,2]
287;[70,70,70,70,7]
288;[200,70,7,7,2,2]
289;[70,70,70,70,7,2]
290;[200,70,20]
291;[200,70,7,7,7]
292;[200,70,20,2]
293;[200,70,7,7,7,2]
294;[200,70,20,2,2]
295;[200,70,7,7,7,2,2]
296;[200,70,20,2,2,2]
297;[200,70,20,7]
298;[200,70,7,7,7,7]
299;[200,70,20,7,2]
300;[70,70,70,70,20]
301;[200,70,20,7,2,2]
302;[70,70,70,70,20,2]
303;[200,70,20,7,2,2,2]
304;[200,70,20,7,7]
305;[200,70,7,7,7,7,7]
306;[200,70,20,7,7,2]
307;[70,70,70,70,20,7]
308;[200,70,20,7,7,2,2]
309;[70,70,70,70,20,7,2]
310;[200,70,20,20]
311;[200,70,20,7,7,7]
312;[200,70,20,20,2]
313;[200,70,20,7,7,7,2]
314;[200,70,20,20,2,2]
315;[200,70,20,7,7,7,2,2]
316;[200,70,20,20,2,2,2]
317;[200,70,20,20,7]
318;[200,70,20,7,7,7,7]
319;[200,70,20,20,7,2]
320;[70,70,70,70,20,20]
321;[200,70,20,20,7,2,2]
322;[70,70,70,70,20,20,2]
323;[200,70,20,20,7,2,2,2]
324;[200,70,20,20,7,7]
325;[200,70,20,7,7,7,7,7]
326;[200,70,20,20,7,7,2]
327;[70,70,70,70,20,20,7]
328;[200,70,20,20,7,7,2,2]
329;[70,70,70,70,20,20,7,2]
330;[200,70,20,20,20]
331;[200,70,20,20,7,7,7]
332;[200,70,20,20,20,2]
333;[200,70,20,20,7,7,7,2]
334;[200,70,20,20,20,2,2]
335;[200,70,20,20,7,7,7,2,2]
336;[200,70,20,20,20,2,2,2]
337;[200,70,20,20,20,7]
338;[200,70,20,20,7,7,7,7]
339;[200,70,20,20,20,7,2]
340;[200,70,70]
341;[200,70,20,20,20,7,2,2]
342;[200,70,70,2]
343;[200,70,20,20,20,7,2,2,2]
344;[200,70,70,2,2]
345;[200,70,20,20,7,7,7,7,7]
346;[200,70,70,2,2,2]
347;[200,70,70,7]
348;[200,70,70,2,2,2,2]
349;[200,70,70,7,2]
350;[70,70,70,70,70]
351;[200,70,70,7,2,2]
352;[70,70,70,70,70,2]
353;[200,70,70,7,2,2,2]
354;[200,70,70,7,7]
355;[200,70,70,7,2,2,2,2]
356;[200,70,70,7,7,2]
357;[70,70,70,70,70,7]
358;[200,70,70,7,7,2,2]
359;[70,70,70,70,70,7,2]
360;[200,70,70,20]
361;[200,70,70,7,7,7]
362;[200,70,70,20,2]
363;[200,70,70,7,7,7,2]
364;[200,70,70,20,2,2]
365;[200,70,70,7,7,7,2,2]
366;[200,70,70,20,2,2,2]
367;[200,70,70,20,7]
368;[200,70,70,7,7,7,7]
369;[200,70,70,20,7,2]
370;[70,70,70,70,70,20]
371;[200,70,70,20,7,2,2]
372;[70,70,70,70,70,20,2]
373;[200,70,70,20,7,2,2,2]
374;[200,70,70,20,7,7]
375;[200,70,70,7,7,7,7,7]
376;[200,70,70,20,7,7,2]
377;[70,70,70,70,70,20,7]
378;[200,70,70,20,7,7,2,2]
379;[70,70,70,70,70,20,7,2]
380;[200,70,70,20,20]
381;[200,70,70,20,7,7,7]
382;[200,70,70,20,20,2]
383;[200,70,70,20,7,7,7,2]
384;[200,70,70,20,20,2,2]
385;[200,70,70,20,7,7,7,2,2]
386;[200,70,70,20,20,2,2,2]
387;[200,70,70,20,20,7]
388;[200,70,70,20,7,7,7,7]
389;[200,70,70,20,20,7,2]
390;[70,70,70,70,70,20,20]
391;[200,70,70,20,20,7,2,2]
392;[70,70,70,70,70,20,20,2]
393;[200,70,70,20,20,7,2,2,2]
394;[200,70,70,20,20,7,7]
395;[200,70,70,20,7,7,7,7,7]
396;[200,70,70,20,20,7,7,2]
397;[70,70,70,70,70,20,20,7]
398;[200,70,70,20,20,7,7,2,2]
399;[70,70,70,70,70,20,20,7,2]
400;[200,200]
401;[200,70,70,20,20,7,7,7]
402;[200,200,2]
403;[200,70,70,20,20,7,7,7,2]
404;[200,200,2,2]
405;[200,70,70,20,20,7,7,7,2,2]
406;[200,200,2,2,2]
407;[200,200,7]
408;[200,200,2,2,2,2]
409;[200,200,7,2]
410;[200,70,70,70]
411;[200,200,7,2,2]
412;[200,70,70,70,2]
413;[200,200,7,2,2,2]
414;[200,200,7,7]
415;[200,200,7,2,2,2,2]
416;[200,200,7,7,2]
417;[200,70,70,70,7]
418;[200,200,7,7,2,2]
419;[200,70,70,70,7,2]
420;[200,200,20]
421;[200,200,7,7,7]
422;[200,200,20,2]
423;[200,200,7,7,7,2]
424;[200,200,20,2,2]
425;[200,200,7,7,7,2,2]
426;[200,200,20,2,2,2]
427;[200,200,20,7]
428;[200,200,7,7,7,7]
429;[200,200,20,7,2]
430;[200,70,70,70,20]
431;[200,200,20,7,2,2]
432;[200,70,70,70,20,2]
433;[200,200,20,7,2,2,2]
434;[200,200,20,7,7]
435;[200,200,7,7,7,7,7]
436;[200,200,20,7,7,2]
437;[200,70,70,70,20,7]
438;[200,200,20,7,7,2,2]
439;[200,70,70,70,20,7,2]
440;[200,200,20,20]
441;[200,200,20,7,7,7]
442;[200,200,20,20,2]
443;[200,200,20,7,7,7,2]
444;[200,200,20,20,2,2]
445;[200,200,20,7,7,7,2,2]
446;[200,200,20,20,2,2,2]
447;[200,200,20,20,7]
448;[200,200,20,7,7,7,7]
449;[200,200,20,20,7,2]
450;[200,70,70,70,20,20]
451;[200,200,20,20,7,2,2]
452;[200,70,70,70,20,20,2]
453;[200,200,20,20,7,2,2,2]
454;[200,200,20,20,7,7]
455;[200,200,20,7,7,7,7,7]
456;[200,200,20,20,7,7,2]
457;[200,70,70,70,20,20,7]
458;[200,200,20,20,7,7,2,2]
459;[200,70,70,70,20,20,7,2]
460;[200,200,20,20,20]
461;[200,200,20,20,7,7,7]
462;[200,200,20,20,20,2]
463;[200,200,20,20,7,7,7,2]
464;[200,200,20,20,20,2,2]
465;[200,200,20,20,7,7,7,2,2]
466;[200,200,20,20,20,2,2,2]
467;[200,200,20,20,20,7]
468;[200,200,20,20,7,7,7,7]
469;[200,200,20,20,20,7,2]
470;[200,200,70]
471;[200,200,20,20,20,7,2,2]
472;[200,200,70,2]
473;[200,200,20,20,20,7,2,2,2]
474;[200,200,70,2,2]
475;[200,200,20,20,7,7,7,7,7]
476;[200,200,70,2,2,2]
477;[200,200,70,7]
478;[200,200,70,2,2,2,2]
479;[200,200,70,7,2]
480;[200,70,70,70,70]
481;[200,200,70,7,2,2]
482;[200,70,70,70,70,2]
483;[200,200,70,7,2,2,2]
484;[200,200,70,7,7]
485;[200,200,70,7,2,2,2,2]
486;[200,200,70,7,7,2]
487;[200,70,70,70,70,7]
488;[200,200,70,7,7,2,2]
489;[200,70,70,70,70,7,2]
490;[200,200,70,20]
491;[200,200,70,7,7,7]
492;[200,200,70,20,2]
493;[200,200,70,7,7,7,2]
494;[200,200,70,20,2,2]
495;[200,200,70,7,7,7,2,2]
496;[200,200,70,20,2,2,2]
497;[200,200,70,20,7]
498;[200,200,70,7,7,7,7]
499;[200,200,70,20,7,2]
500;[200,70,70,70,70,20]
501;[200,200,70,20,7,2,2]
502;[200,70,70,70,70,20,2]
503;[200,200,70,20,7,2,2,2]
504;[200,200,70,20,7,7]
505;[200,200,70,7,7,7,7,7]
506;[200,200,70,20,7,7,2]
507;[200,70,70,70,70,20,7]
508;[200,200,70,20,7,7,2,2]
509;[200,70,70,70,70,20,7,2]
510;[200,200,70,20,20]
511;[200,200,70,20,7,7,7]
512;[200,200,70,20,20,2]
513;[200,200,70,20,7,7,7,2]
514;[200,200,70,20,20,2,2]
515;[200,200,70,20,7,7,7,2,2]
516;[200,200,70,20,20,2,2,2]
517;[200,200,70,20,20,7]
518;[200,200,70,20,7,7,7,7]
519;[200,200,70,20,20,7,2]
520;[200,70,70,70,70,20,20]
521;[200,200,70,20,20,7,2,2]
522;[200,70,70,70,70,20,20,2]
523;[200,200,70,20,20,7,2,2,2]
524;[200,200,70,20,20,7,7]
525;[200,200,70,20,7,7,7,7,7]
526;[200,200,70,20,20,7,7,2]
527;[200,70,70,70,70,20,20,7]
528;[200,200,70,20,20,7,7,2,2]
529;[200,70,70,70,70,20,20,7,2]
530;[200,200,70,20,20,20]
531;[200,200,70,20,20,7,7,7]
532;[200,200,70,20,20,20,2]
533;[200,200,70,20,20,7,7,7,2]
534;[200,200,70,20,20,20,2,2]
535;[200,200,70,20,20,7,7,7,2,2]
536;[200,200,70,20,20,20,2,2,2]
537;[200,200,70,20,20,20,7]
538;[200,200,70,20,20,7,7,7,7]
539;[200,200,70,20,20,20,7,2]
540;[200,200,70,70]
541;[200,200,70,20,20,20,7,2,2]
542;[200,200,70,70,2]
543;[200,200,70,20,20,20,7,2,2,2]
544;[200,200,70,70,2,2]
545;[200,200,70,20,20,7,7,7,7,7]
546;[200,200,70,70,2,2,2]
547;[200,200,70,70,7]
548;[200,200,70,70,2,2,2,2]
549;[200,200,70,70,7,2]
550;[200,70,70,70,70,70]
551;[200,200,70,70,7,2,2]
552;[200,70,70,70,70,70,2]
553;[200,200,70,70,7,2,2,2]
554;[200,200,70,70,7,7]
555;[200,200,70,70,7,2,2,2,2]
556;[200,200,70,70,7,7,2]
557;[200,70,70,70,70,70,7]
558;[200,200,70,70,7,7,2,2]
559;[200,70,70,70,70,70,7,2]
560;[200,200,70,70,20]
561;[200,200,70,70,7,7,7]
562;[200,200,70,70,20,2]
563;[200,200,70,70,7,7,7,2]
564;[200,200,70,70,20,2,2]
565;[200,200,70,70,7,7,7,2,2]
566;[200,200,70,70,20,2,2,2]
567;[200,200,70,70,20,7]
568;[200,200,70,70,7,7,7,7]
569;[200,200,70,70,20,7,2]
570;[200,70,70,70,70,70,20]
571;[200,200,70,70,20,7,2,2]
572;[200,70,70,70,70,70,20,2]
573;[200,200,70,70,20,7,2,2,2]
574;[200,200,70,70,20,7,7]
575;[200,200,70,70,7,7,7,7,7]
576;[200,200,70,70,20,7,7,2]
577;[200,70,70,70,70,70,20,7]
578;[200,200,70,70,20,7,7,2,2]
579;[200,70,70,70,70,70,20,7,2]
580;[200,200,70,70,20,20]
581;[200,200,70,70,20,7,7,7]
582;[200,200,70,70,20,20,2]
583;[200,200,70,70,20,7,7,7,2]
584;[200,200,70,70,20,20,2,2]
585;[200,200,70,70,20,7,7,7,2,2]
586;[200,200,70,70,20,20,2,2,2]
587;[200,200,70,70,20,20,7]
588;[200,200,70,70,20,7,7,7,7]
589;[200,200,70,70,20,20,7,2]
590;[200,70,70,70,70,70,20,20]
591;[200,200,70,70,20,20,7,2,2]
592;[200,70,70,70,70,70,20,20,2]
593;[200,200,70,70,20,20,7,2,2,2]
594;[200,200,70,70,20,20,7,7]
595;[200,200,70,70,20,7,7,7,7,7]
596;[200,200,70,70,20,20,7,7,2]
597;[200,70,70,70,70,70,20,20,7]
598;[200,200,70,70,20,20,7,7,2,2]
599;[200,70,70,70,70,70,20,20,7,2]
600;[200,200,200]
601;[200,200,70,70,20,20,7,7,7]
602;[200,200,200,2]
603;[200,200,70,70,20,20,7,7,7,2]
604;[200,200,200,2,2]
605;[200,200,70,70,20,20,7,7,7,2,2]
606;[200,200,200,2,2,2]
607;[200,200,200,7]
608;[200,200,200,2,2,2,2]
609;[200,200,200,7,2]
610;[200,200,70,70,70]
611;[200,200,200,7,2,2]
612;[200,200,70,70,70,2]
613;[200,200,200,7,2,2,2]
614;[200,200,200,7,7]
615;[200,200,200,7,2,2,2,2]
616;[200,200,200,7,7,2]
617;[200,200,70,70,70,7]
618;[200,200,200,7,7,2,2]
619;[200,200,70,70,70,7,2]
620;[200,200,200,20]
621;[200,200,200,7,7,7]
622;[200,200,200,20,2]
623;[200,200,200,7,7,7,2]
624;[200,200,200,20,2,2]
625;[200,200,200,7,7,7,2,2]
626;[200,200,200,20,2,2,2]
627;[200,200,200,20,7]
628;[200,200,200,7,7,7,7]
629;[200,200,200,20,7,2]
630;[200,200,70,70,70,20]
631;[200,200,200,20,7,2,2]
632;[200,200,70,70,70,20,2]
633;[200,200,200,20,7,2,2,2]
634;[200,200,200,20,7,7]
635;[200,200,200,7,7,7,7,7]
636;[200,200,200,20,7,7,2]
637;[200,200,70,70,70,20,7]
638;[200,200,200,20,7,7,2,2]
639;[200,200,70,70,70,20,7,2]
640;[200,200,200,20,20]
641;[200,200,200,20,7,7,7]
642;[200,200,200,20,20,2]
643;[200,200,200,20,7,7,7,2]
644;[200,200,200,20,20,2,2]
645;[200,200,200,20,7,7,7,2,2]
646;[200,200,200,20,20,2,2,2]
647;[200,200,200,20,20,7]
648;[200,200,200,20,7,7,7,7]
649;[200,200,200,20,20,7,2]
650;[200,200,70,70,70,20,20]
651;[200,200,200,20,20,7,2,2]
652;[200,200,70,70,70,20,20,2]
653;[200,200,200,20,20,7,2,2,2]
654;[200,200,200,20,20,7,7]
655;[200,200,200,20,7,7,7,7,7]
656;[200,200,200,20,20,7,7,2]
657;[200,200,70,70,70,20,20,7]
658;[200,200,200,20,20,7,7,2,2]
659;[200,200,70,70,70,20,20,7,2]
660;[200,200,200,20,20,20]
661;[200,200,200,20,20,7,7,7]
662;[200,200,200,20,20,20,2]
663;[200,200,200,20,20,7,7,7,2]
664;[200,200,200,20,20,20,2,2]
665;[200,200,200,20,20,7,7,7,2,2]
666;[200,200,200,20,20,20,2,2,2]
667;[200,200,200,20,20,20,7]
668;[200,200,200,20,20,7,7,7,7]
669;[200,200,200,20,20,20,7,2]
670;[200,200,200,70]
671;[200,200,200,20,20,20,7,2,2]
672;[200,200,200,70,2]
673;[200,200,200,20,20,20,7,2,2,2]
674;[200,200,200,70,2,2]
675;[200,200,200,20,20,7,7,7,7,7]
676;[200,200,200,70,2,2,2]
677;[200,200,200,70,7]
678;[200,200,200,70,2,2,2,2]
679;[200,200,200,70,7,2]
680;[200,200,70,70,70,70]
681;[200,200,200,70,7,2,2]
682;[200,200,70,70,70,70,2]
683;[200,200,200,70,7,2,2,2]
684;[200,200,200,70,7,7]
685;[200,200,200,70,7,2,2,2,2]
686;[200,200,200,70,7,7,2]
687;[200,200,70,70,70,70,7]
688;[200,200,200,70,7,7,2,2]
689;[200,200,70,70,70,70,7,2]
690;[200,200,200,70,20]
691;[200,200,200,70,7,7,7]
692;[200,200,200,70,20,2]
693;[200,200,200,70,7,7,7,2]
694;[200,200,200,70,20,2,2]
695;[200,200,200,70,7,7,7,2,2]
696;[200,200,200,70,20,2,2,2]
697;[200,200,200,70,20,7]
698;[200,200,200,70,7,7,7,7]
699;[200,200,200,70,20,7,2]
700;[700]
701;[200,200,200,70,20,7,2,2]
702;[700,2]
703;[200,200,200,70,20,7,2,2,2]
704;[700,2,2]
705;[200,200,200,70,7,7,7,7,7]
706;[700,2,2,2]
707;[700,7]
708;[700,2,2,2,2]
709;[700,7,2]
710;[700,2,2,2,2,2]
711;[700,7,2,2]
712;[700,2,2,2,2,2,2]
713;[700,7,2,2,2]
714;[700,7,7]
715;[700,7,2,2,2,2]
716;[700,7,7,2]
717;[700,7,2,2,2,2,2]
718;[700,7,7,2,2]
719;[700,7,2,2,2,2,2,2]
720;[700,20]
721;[700,7,7,7]
722;[700,20,2]
723;[700,7,7,7,2]
724;[700,20,2,2]
725;[700,7,7,7,2,2]
726;[700,20,2,2,2]
727;[700,20,7]
728;[700,7,7,7,7]
729;[700,20,7,2]
730;[700,7,7,7,7,2]
731;[700,20,7,2,2]
732;[700,7,7,7,7,2,2]
733;[700,20,7,2,2,2]
734;[700,20,7,7]
735;[700,7,7,7,7,7]
736;[700,20,7,7,2]
737;[700,7,7,7,7,7,2]
738;[700,20,7,7,2,2]
739;[700,7,7,7,7,7,2,2]
740;[700,20,20]
741;[700,20,7,7,7]
742;[700,20,20,2]
743;[700,20,7,7,7,2]
744;[700,20,20,2,2]
745;[700,20,7,7,7,2,2]
746;[700,20,20,2,2,2]
747;[700,20,20,7]
748;[700,20,7,7,7,7]
749;[700,20,20,7,2]
750;[700,20,7,7,7,7,2]
751;[700,20,20,7,2,2]
752;[700,20,7,7,7,7,2,2]
753;[700,20,20,7,2,2,2]
754;[700,20,20,7,7]
755;[700,20,7,7,7,7,7]
756;[700,20,20,7,7,2]
757;[700,20,7,7,7,7,7,2]
758;[700,20,20,7,7,2,2]
759;[700,20,7,7,7,7,7,2,2]
760;[700,20,20,20]
761;[700,20,20,7,7,7]
762;[700,20,20,20,2]
763;[700,20,20,7,7,7,2]
764;[700,20,20,20,2,2]
765;[700,20,20,7,7,7,2,2]
766;[700,20,20,20,2,2,2]
767;[700,20,20,20,7]
768;[700,20,20,7,7,7,7]
769;[700,20,20,20,7,2]
770;[700,70]
771;[700,20,20,20,7,2,2]
772;[700,70,2]
773;[700,20,20,20,7,2,2,2]
774;[700,70,2,2]
775;[700,20,20,7,7,7,7,7]
776;[700,70,2,2,2]
777;[700,70,7]
778;[700,70,2,2,2,2]
779;[700,70,7,2]
780;[700,20,20,20,20]
781;[700,70,7,2,2]
782;[700,20,20,20,20,2]
783;[700,70,7,2,2,2]
784;[700,70,7,7]
785;[700,70,7,2,2,2,2]
786;[700,70,7,7,2]
787;[700,20,20,20,20,7]
788;[700,70,7,7,2,2]
789;[700,20,20,20,20,7,2]
790;[700,70,20]
791;[700,70,7,7,7]
792;[700,70,20,2]
793;[700,70,7,7,7,2]
794;[700,70,20,2,2]
795;[700,70,7,7,7,2,2]
796;[700,70,20,2,2,2]
797;[700,70,20,7]
798;[700,70,7,7,7,7]
799;[700,70,20,7,2]
800;[200,200,200,200]
801;[700,70,20,7,2,2]
802;[200,200,200,200,2]
803;[700,70,20,7,2,2,2]
804;[700,70,20,7,7]
805;[700,70,7,7,7,7,7]
806;[700,70,20,7,7,2]
807;[200,200,200,200,7]
808;[700,70,20,7,7,2,2]
809;[200,200,200,200,7,2]
810;[700,70,20,20]
811;[700,70,20,7,7,7]
812;[700,70,20,20,2]
813;[700,70,20,7,7,7,2]
814;[700,70,20,20,2,2]
815;[700,70,20,7,7,7,2,2]
816;[700,70,20,20,2,2,2]
817;[700,70,20,20,7]
818;[700,70,20,7,7,7,7]
819;[700,70,20,20,7,2]
820;[200,200,200,200,20]
821;[700,70,20,20,7,2,2]
822;[200,200,200,200,20,2]
823;[700,70,20,20,7,2,2,2]
824;[700,70,20,20,7,7]
825;[700,70,20,7,7,7,7,7]
826;[700,70,20,20,7,7,2]
827;[200,200,200,200,20,7]
828;[700,70,20,20,7,7,2,2]
829;[200,200,200,200,20,7,2]
830;[700,70,20,20,20]
831;[700,70,20,20,7,7,7]
832;[700,70,20,20,20,2]
833;[700,70,20,20,7,7,7,2]
834;[700,70,20,20,20,2,2]
835;[700,70,20,20,7,7,7,2,2]
836;[700,70,20,20,20,2,2,2]
837;[700,70,20,20,20,7]
838;[700,70,20,20,7,7,7,7]
839;[700,70,20,20,20,7,2]
840;[700,70,70]
841;[700,70,20,20,20,7,2,2]
842;[700,70,70,2]
843;[700,70,20,20,20,7,2,2,2]
844;[700,70,70,2,2]
845;[700,70,20,20,7,7,7,7,7]
846;[700,70,70,2,2,2]
847;[700,70,70,7]
848;[700,70,70,2,2,2,2]
849;[700,70,70,7,2]
850;[700,70,20,20,20,20]
851;[700,70,70,7,2,2]
852;[700,70,20,20,20,20,2]
853;[700,70,70,7,2,2,2]
854;[700,70,70,7,7]
855;[700,70,70,7,2,2,2,2]
856;[700,70,70,7,7,2]
857;[700,70,20,20,20,20,7]
858;[700,70,70,7,7,2,2]
859;[700,70,20,20,20,20,7,2]
860;[700,70,70,20]
861;[700,70,70,7,7,7]
862;[700,70,70,20,2]
863;[700,70,70,7,7,7,2]
864;[700,70,70,20,2,2]
865;[700,70,70,7,7,7,2,2]
866;[700,70,70,20,2,2,2]
867;[700,70,70,20,7]
868;[700,70,70,7,7,7,7]
869;[700,70,70,20,7,2]
870;[200,200,200,200,70]
871;[700,70,70,20,7,2,2]
872;[200,200,200,200,70,2]
873;[700,70,70,20,7,2,2,2]
874;[700,70,70,20,7,7]
875;[700,70,70,7,7,7,7,7]
876;[700,70,70,20,7,7,2]
877;[200,200,200,200,70,7]
878;[700,70,70,20,7,7,2,2]
879;[200,200,200,200,70,7,2]
880;[700,70,70,20,20]
881;[700,70,70,20,7,7,7]
882;[700,70,70,20,20,2]
883;[700,70,70,20,7,7,7,2]
884;[700,70,70,20,20,2,2]
885;[700,70,70,20,7,7,7,2,2]
886;[700,70,70,20,20,2,2,2]
887;[700,70,70,20,20,7]
888;[700,70,70,20,7,7,7,7]
889;[700,70,70,20,20,7,2]
890;[200,200,200,200,70,20]
891;[700,70,70,20,20,7,2,2]
892;[200,200,200,200,70,20,2]
893;[700,70,70,20,20,7,2,2,2]
894;[700,70,70,20,20,7,7]
895;[700,70,70,20,7,7,7,7,7]
896;[700,70,70,20,20,7,7,2]
897;[200,200,200,200,70,20,7]
898;[700,70,70,20,20,7,7,2,2]
899;[200,200,200,200,70,20,7,2]
900;[700,200]
901;[700,70,70,20,20,7,7,7]
902;[700,200,2]
903;[700,70,70,20,20,7,7,7,2]
904;[700,200,2,2]
905;[700,70,70,20,20,7,7,7,2,2]
906;[700,200,2,2,2]
907;[700,200,7]
908;[700,200,2,2,2,2]
909;[700,200,7,2]
910;[700,70,70,70]
911;[700,200,7,2,2]
912;[700,70,70,70,2]
913;[700,200,7,2,2,2]
914;[700,200,7,7]
915;[700,200,7,2,2,2,2]
916;[700,200,7,7,2]
917;[700,70,70,70,7]
918;[700,200,7,7,2,2]
919;[700,70,70,70,7,2]
920;[700,200,20]
921;[700,200,7,7,7]
922;[700,200,20,2]
923;[700,200,7,7,7,2]
924;[700,200,20,2,2]
925;[700,200,7,7,7,2,2]
926;[700,200,20,2,2,2]
927;[700,200,20,7]
928;[700,200,7,7,7,7]
929;[700,200,20,7,2]
930;[700,70,70,70,20]
931;[700,200,20,7,2,2]
932;[700,70,70,70,20,2]
933;[700,200,20,7,2,2,2]
934;[700,200,20,7,7]
935;[700,200,7,7,7,7,7]
936;[700,200,20,7,7,2]
937;[700,70,70,70,20,7]
938;[700,200,20,7,7,2,2]
939;[700,70,70,70,20,7,2]
940;[700,200,20,20]
941;[700,200,20,7,7,7]
942;[700,200,20,20,2]
943;[700,200,20,7,7,7,2]
944;[700,200,20,20,2,2]
945;[700,200,20,7,7,7,2,2]
946;[700,200,20,20,2,2,2]
947;[700,200,20,20,7]
948;[700,200,20,7,7,7,7]
949;[700,200,20,20,7,2]
950;[700,70,70,70,20,20]
951;[700,200,20,20,7,2,2]
952;[700,70,70,70,20,20,2]
953;[700,200,20,20,7,2,2,2]
954;[700,200,20,20,7,7]
955;[700,200,20,7,7,7,7,7]
956;[700,200,20,20,7,7,2]
957;[700,70,70,70,20,20,7]
958;[700,200,20,20,7,7,2,2]
959;[700,70,70,70,20,20,7,2]
960;[700,200,20,20,20]
961;[700,200,20,20,7,7,7]
962;[700,200,20,20,20,2]
963;[700,200,20,20,7,7,7,2]
964;[700,200,20,20,20,2,2]
965;[700,200,20,20,7,7,7,2,2]
966;[700,200,20,20,20,2,2,2]
967;[700,200,20,20,20,7]
968;[700,200,20,20,7,7,7,7]
969;[700,200,20,20,20,7,2]
970;[700,200,70]
971;[700,200,20,20,20,7,2,2]
972;[700,200,70,2]
973;[700,200,20,20,20,7,2,2,2]
974;[700,200,70,2,2]
975;[700,200,20,20,7,7,7,7,7]
976;[700,200,70,2,2,2]
977;[700,200,70,7]
978;[700,200,70,2,2,2,2]
979;[700,200,70,7,2]
980;[700,70,70,70,70]
981;[700,200,70,7,2,2]
982;[700,70,70,70,70,2]
983;[700,200,70,7,2,2,2]
984;[700,200,70,7,7]
985;[700,200,70,7,2,2,2,2]
986;[700,200,70,7,7,2]
987;[700,70,70,70,70,7]
988;[700,200,70,7,7,2,2]
989;[700,70,70,70,70,7,2]
990;[700,200,70,20]
991;[700,200,70,7,7,7]
992;[700,200,70,20,2]
993;[700,200,70,7,7,7,2]
994;[700,200,70,20,2,2]
995;[700,200,70,7,7,7,2,2]
996;[700,200,70,20,2,2,2]
997;[700,200,70,20,7]
998;[700,200,70,7,7,7,7]
999;[700,200,70,20,7,2]