{
	"name": "ab2-io-backtracking-solution-bfs",
	"authors": [
		"CSchoel"
	],
	"description": "Solution for Backtracking exercise from AB2 in A&D 2018 with BFS",
	"copyright": "Copyright © 2018, CSchoel",
	"license": "MIT",
  "targetPath": "out",
  "targetType": "executable"
}